{
  "name": "",
  "css_prefix_text": "icon-",
  "css_use_suffix": false,
  "hinting": true,
  "units_per_em": 1000,
  "ascent": 850,
  "glyphs": [
    {
      "uid": "4743b088aa95d6f3b6b990e770d3b647",
      "css": "facebook-squared",
      "code": 62216,
      "src": "fontawesome"
    },
    {
      "uid": "906348dc798a0d42715cc97c875e3ac6",
      "css": "twitter-squared",
      "code": 62212,
      "src": "fontawesome"
    },
    {
      "uid": "4c1ef492f1d2c39a2250ae457cee2a6e",
      "css": "instagram",
      "code": 61805,
      "src": "fontawesome"
    },
    {
      "uid": "f0cf7db1b03cb65adc450aa3bdaf8c4d",
      "css": "gplus-squared",
      "code": 61652,
      "src": "fontawesome"
    },
    {
      "uid": "e15f0d620a7897e2035c18c80142f6d9",
      "css": "link-ext",
      "code": 61582,
      "src": "fontawesome"
    },
    {
      "uid": "499b745a2e2485bdd059c3a53d048e5f",
      "css": "cancel",
      "code": 59392,
      "src": "elusive"
    },
    {
      "uid": "fbc6facd27f744438410cbcad545bf52",
      "css": "tripadvisor",
      "code": 62050,
      "src": "fontawesome"
    }
  ]
}